{
    "dimension": 2,
    "simulator": "fluidmpls",
    "driver": {
        "cfl": 1.0,
        "first_frame": 0,
        "fps": 1000,
        "last_frame": 300,
        "min_step_frame_fraction": 0,
        "output_base_dir": "mpls_single_bubble_on_tank"
    },
    "scene": {
        "use_particle_correction": 1,
        "use_normal_dynamics": 1,
        "use_tangent_dynamics": 0,
        "use_gravity": 1,
        "scale": 64,
        "side_len": 0.1,
        "sigma": 0.07275,
        "test": "single_bubble_on_tank"
    }
}